-1902203884
-1140091822
-1985496821
-95380664
-1361990052
-1966331102
-46683233
-1462407582
-472360130
-267731720
-181467129
-1395800268
-1560117653
-2125556403
-1907798928
-1332398768
-875121043
-1688343342
-944968355
-773569543
-1845146241
-1190733696
-1095127898
-1894845938
-1366686697
-1754072059
-90789924
-69343752
-2136634527
-458533556
-202097965
-1527714244
-1767262149
-994748023
-1428945194
-1065045978
-854251414
-1260899778
-1666373527
-1275616300
-1735235393
-588738924
-2122227931
-383081656
-692963353
-695955126
-212982204
-45635011
-1803120581
-1638984889
-522466944
-17861647
-1379673433
-1466883060
-360705269
-1454386169
-1565591841
-1675391992
-1607246278
-1138062110
-1508588317
-278260546
-627440887
-887002774
-1608220844
-1715723461
-126707573
-1856487658
-96047380
-1731451966
-1986508564
-2100016378
-1500233628
-1920955555
-455420399
-958102152
-1963280912
-632571348
-1071787519
-663208653
-516543034
-1499722123
-1754410116
-356747328
-835643811
-808069791
-1293993049
-993835752
-1691009813
-1456936006
-1998235472
-1756790535
-177874987
-490896905
-994137596
-1763836515
-790180589
-225523174
-2112576397
-1001563646
-333922976
-1027106961
-250627103
-309025374
-1837396013
-1880878667
-764618125
-1503233618
-1533140870
-1168059179
-850163979
-1917984590
-1261081857
-40211188
-475827200
-809201902
-352416446
-2014512894
-1593551788
-2127025563
-939419847
-1829117584
-73125181
-1751232938
-1992369007
-381962181
-1527607675
-2019423559
-584052869
-1667918294
-1243441673
-1274860669
-1208566864
-1678191350
-2062907483
-1045282318
-688959303
-442209154
-715739550
-1379828026
-1572584332
-1127194275
-1038274014
-190369480
-751951799
-735528590
-2136133285
-1570704727
-1029676568
-1108096090
-404476772
-1509973511
-894629174
-599801461
-1563827109
-1361856322
-374688263
-1086970171
-453767342
-902232743
-2022771481
-530198417
-205769230
-90978024
-1933813926
-735321541
-124805102
-1709932349
-1603959294
-49275751
-420755059
-1654316977
-1688830347
-881338662
-436590282
-195103651
-666525233
-1480052927
-1122791556
-1185556908
-1031804642
-1098836569
-168263066
-879927071
-208098469
-1768313844
-860130531
-853394311
-259287066
-1347521544
-2059902453
-1699317305
-1379932135
-1123754176
-1529902682
-919165511
-950255371
-279859026
-307226671
-1297502489
-1500006073
-524761881
-1717353273
-1098714313
-72582627
-776282964
-187076947
-196897617
-829788140
-1836103225
-1593849055
-744458166
-1097744505
-328873778
-2138323130
-723655430
-1227973742
-588975542
-1952836215
-817591264
-462692456
-2085604009
-1648622735
-95582270
-1450712721
-89424850
-1040711343
-1704681438
-1309201607
-1723109809
-1581308965
-1165858789
-1577589211
-585982820
-542677602
-2124228876
-376520586
-735215533
-90541622
-960577869
-445087143
-1682927823
-455724689
-427181821
-649509814
-1940853960
-1117598481
-1395421088
-543736401
-1090794117
-1863662901
-1239960499
-920871443
-1752012518
-639150274
-1677996554
-1073988122
-681496172
-663607176
-1209990785
-1500634136
-2001822566
-1273503736
-653676326
-989251375
-1326723718
-213052511
-1751000678
-1538139868
-326508479
-821167911
-1055673240
-388328520
-604690171
-2040044852
-1254629679
-79749100
-434026112
-375685061
-926928483
-98509539
-878329736
-261334767
-2079247603
-1578307631
-1752371091
-322151354
-1040460220
-1360874228
-2110361437
-52861634
-1823737265
-1130137286
-971125326
-475633691
-1129535548
-1999551656
-345968560
-2117225244
-532796478
-920375447
-997208871
-1297591165
-2106517254
-545983484
-766181838
-887747235
-1899033821
-674784665
-380280683
-796407479
-1406176677
-1825301804
-1242085545
-189589275
-2015879817
-891312801
-46874609
-2097962601
-598334140
-1032712843
-315710539
-103995671
-1955670237
-1042962284
-1122349972
-454709601
-1621064107
-518770904
-7045666
-820835615
-1031111642
-77779296
-1220053133
-1867426001
-267023614
-533092115
-1957479956
-15241789
-693372006
-659632999
-1687634041
-1993498315
-420744538
-725777176
-909008743
-668389425
-1653998825
-1276734332
-1539947215
-1748859898
-240618635
-2034267929
-2003804509
-353061246
-1235871469
-667407027
-140671897
-200958956
-1320044374
-1315549604
-2137470184
-1793362717
-694004779
-822217541
-785327992
-986310581
-119116394
-388995622
-944563322
-739434086
-1699965316
-955679287
-1352841410
-351260352
-1918579138
-90997689
-60047188
-996787257
-396807597
-120925048
-306016313
-1958393935
-635298713
-1127153256
-1104902342
-2122211128
-778715011
-1810728562
-1598503000
-1302312405
-704095587
-116569614
-2059398554
-1625103421
-1213314114
-407103170
-1401398320
-322368649
-1721265366
-882791757
-1130454487
-429781157
-1283239143
-705589295
-666103970
-2003605245
-1707628008
-1768761267
-1952030010
-125086511
-924208713
-151215329
-1980457912
-153342832
-948365093
-1489223982
-1015809583
-128196291
-132601919
-906528335
-1163985855
-1949387790
-967422037
-1405173396
-1107638708
-946745910
-385848283
-408809814
-95748586
-997266209
-1372328240
-760115786
-23292912
-770359578
-1271567870
-785737070
-1755955338
-46162910
-416394533
-883251124
-1923908728
-508890935
-65665404
-1102491491
-194499608
-186548351
-729423228
-1556769331
-1463091262
-1521655557
-512110274
-1692700292
-1011020299
-1134167852
-2018909138
-591580867
-974470533
-531721410
-1650422525
-1315333190
-233944506
-1442701203
-311053385
-1519993173
-958041037
-2026635492
-1162017547
-1099211392
-248689481
-752728197
-900320289
-2027232317
-2013065824
-637694680
-525605775
-2101607008
-1867647393
-1398006184
-1823053919
-1002944504
-1268372034
-2146663819
-721376331
-1764256193
-2016821688
-1527071236
-654974503
-321463892
-2000409777
-1609371242
-1357517143
-723226231
-24854150
-1305407343
-778255443
-1349375496
-2079714156
-157848419
-350452387
-99406538
-1898176703
-1820508095
-1908667955
-409747895
-733635401
-731086802
-1234812930
-1266538120
-1544836520
-1389669931
-1013186111
-941756494
-698160495
-1412227076
-1289349533
-1617853509
-282211840
-509433149
-1813219528
-2080143178
-1961324785
-1432347179
-959002979
-1030279575
-1617149926
-637552179
-413290052
-1490590285
-252305645
-86925617
-488515082
-75732961
-1553571524
-1538458193
-1556920517
-1657103149
-154678626
-244330752
-929162066
-1635151241
-930225592
-1313329907
-153622627
-1844181286
-2133556006
-268686300
-1337431269
-2101543321
-1925061607
-1092209514
-2020397050
-830256510
-1343992166
-1588569046
-1735475528
-1308051964
-1211062048
-1228354069
-1772780048
-1312538891
-688180803
-165942830
-609896226
-52404861
-1440203533
-1653517597
-1181836438
-1337794862
-2066843976
-257114211
-1095805617
-351156432
-1759018165
-34594518
-1358689922
-1206796117
-140050567
-1624458003
-555091327
-2022856406
-1260896195
-1209833766
-1723600455
-1622879312
-1972909605
-586508010
-1205782166
-841886219
-284702436
-1364014916
-1138937336
-1037285232
-800869942
-1145895868
-2047585546
-440037376
-1079317889
-1783231010
-1325698044
-1837256795
-597390878
-75170568
-26399706
-1820387206
-1075647689
-2089108527
-2087401236
-1338387891
-1191174878
-878210529
-1334948157
-639177005
-867909197
-1279875771
-258572139
-1893567608
-901615402
-1805513241
-156926925
-1942098178
-454397208
-1721168485
-16713419
-520273618
-1357067030
-1655904036
-1801328622
-250359762
-541079302
-1386469437
-1373442399
-101651536
-608960643
-868093424
-688995609
-509255822
-1169336624
-365131568
-1341655108
-572302029
-311889125
-1307932086
-2064402411
-238621865
-1400946546
-1984872819
-1513588168
-129716537
-1244113373
-1352604796
-1593306281
-816691999
-1322316601
-986179123
-685132592
-2143636133
-2143266376
-931196170
-793036444
-968534962
-351277358
-1085417581
-270042748
-645637437
-1749127181
-1762326880
-1602454530
-1065156492
-148382398
-15750087
-1454123911
-1822585395
-640928782
-1169309358
-1696829495
-1512042550
-66910157
-1516000079
-744450814
-1238533436
-1477413561
-343785282
-1394807849
-2025741979
-976819020
-969428594
-1850851621
-1936959975
-255117523
-165108631
-330392263
-2092427875
-2071477602
-1274220898
-930566091
-1310427825
-2093780576
-1510713551
-131538349
-305936730
-321042509
-1583095638
-2112202346
-2067080867
-517229680
-134438258
-987243905
-1493937442
-999593050
-339048675
-367707295
-52101200
-9014873
-1497549297
-1729831101
-1924543942
-985375555
-144474921
-1376678471
-2032846241
-1475807592
-202592193
-271791643
-1538426783
-275071195
-1529623883
-587548581
-1650404849
-499223294
-1426164770
-1230810195
-559124367
-1498714138
-1143880202
-1895156597
-1492933093
-1481334805
-264554365
-1811253037
-16738718
-1005004377
-1870969207
-1421890694
-2010594298
-510961830
-455766154
-933998464
-1154703209
-377650144
-870227946
-87000759
-949581915
-479784553
-1305643909
-82775346
-1905594815
-1679920575
-771857487
-2103999330
-288946472
-1789437786
-2073291647
-940835466
-1165098587
-1894720969
-1461004520
-104045993
-930337937
-2032638985
-1181463254
-1622899111
-1218013067
-1094288090
-928552662
-1428836633
-1646276439
-1233922770
-1633175635
-1296317956
-685339399
-189020449
-173257997
-1029864278
-1262649915
-1757933296
-753332318
-52663000
-2140874253
-1911497831
-296387729
-373156301
-944721116
-1143936094
-393534853
-641664372
-1971276932
-122303470
-1912898424
-248777425
-1763225683
-2013466497
-714328156
-1591294110
-1824713789
-670877273
-63447619
-1753477736
-1996124231
-2108583038
-796651783
-76460523
-1679406134
-1786029265
-1929764864
-1467992098
-1020100856
-634859595
-142471694
-1431633177
-1137369558
-1940312210
-1110643335
-1701613743
-618578958
-1563787798
-1404915345
-208392575
-1874622854
-1737613847
-40695599
-545159272
-1934519221
-1639131920
-423430477
-1887840329
-1555007283
-1057436893
-1356802678
-622902332
-791781242
-146864508
-1600109264
-75295783
-698441991
-416815692
-1953323952
-1365770060
-58576000
-286379712
-745422726
-1540061342
-43230644
-1917618434
-828274951
-1420047886
-366885494
-1973043539
-1442646604
-773979617
-215725799
-64131283
-1785438110
-336752684
-609118483
-1975221499
-468143692
-1699282056
-1355876125
-654792543
-1299003160
-803975988
-1133260345
-1467934074
-133957563
-24557925
-1745866857
-570538066
-1923164562
-524107828
-1823809042
-1232204158
-1931832204
-246849423
-855334341
-1146095065
-1330689575
-103977800
-953168939
-1542468723
-142167442
-545753725
-1704015585
-1567976101
-1407712695
-2022671377
-734048090
-1771336819
-1237681165
-1942670962
-1843887372
-1636676876
-1932295508
-431764626
-368095555
-146666972
-868818128
-551724913
-1563165228
-375216077
-523599438
-2017863718
-190050173
-1282485671
-1226890290
-801638178
-1048288480
-1004765608
-1148986826
-981627339
-1718084415
-1348825248
-586383836
-1784139594
-842572651
-1010183716
-671174308
-486807728
-1051161710
-1698892530
-367305476
-2011868242
-573512462
-656913292
-1665370231
-377510901
-1929085211
-1710392035
-542451507
-1313619787
-939919939
-1207039829
-1706277582
-912821984
-1433944485
-565550823
-1073375549
-1682325551
-1113275936
-2030291899
-669374808
-559355318
-465026687
-976404119
-776158295
-2132823739
-1349529548
-1392451037
-1980789448
-1667075481
-94589218
-169043815
-1522933229
-2078245850
-781643451
-1337095639
-850663927
-1665872545
-2045090131
-205851195
-1265084969
-203885041
-1609034776
-690902868
-1342330319
-1958826780
-953074780
-1804284586
-1184739085
-1247591240
-399887800
-2072871872
-1964178491
-1199689088
-60814545
-1673688914
-27710599
-1466337166
-1292423493
-836619996
-753791141
-1612454107
-759753386
-116209764
-1043409160
-6720280
-1296987748
-1235312043
-2119382189
-542830081
-220606729
-944418609
-1828405966
-1176333835
-1299657039
-490752941
-1641808266
-719520417
-1463823594
-1937646983
-1981708757
-323931914
-710681545
-753807657
-1212261642
-113019527
-561482889
-244356706
-700537985
-1694384997
-687104857
-1502510369
-433601711
-1141005808
-1883444602
-1592533919
-478163609
-1635182604
-1859089937
-821929751
-1530696706
-1109813292
-1697507520
-463199737
-1822506526
-1114324453
-1643081644
-1892781898
-483836365
-1310719465
-1446215047
-1915626106
-1411665114
-1466794615
-1793930988
-165038785
-849692100
-962454148
-1157028429
-1043305412
-1908275697
-731996233
-1458189616
-89084983
-199434754
-1375775686
-603727453
-1250833971
-1771702504
-1391025801
-390377612
-1390665653
-690124852
-1681740292
-2053637118
-1212756045
-2130189927
-41786102
-78003606
-1962185792
-1605893314
-1610089634
-1507275394
-985941815
-885615797
-1463405245
-2013119384
-1280706834
-1805903442
-1900862421
-907728039
-1806689058
-842170748
-879392686
-563521167
-810385418
-326173138
-1015316009
-1055486411
-2144110573
-481339021
-2026205723
-854807955
-1933814224
-1030661430
-848428134
-1465166047
-64880922
-1037630118
-20785294
-2068809777
-378704944
-1022174824
-1237322709
-1052098236
-897078949
-1833869476
-1661283051
-1328669078
-19132628
-553966468
-2088287062
-1970278511
-1774890702
-1689852609
-949620344
-1551321770
-596027535
-1559017575
-2122042375
-1257713785
-932443957
-1619092748
-1648734017
-827001150
-602073160
-1604576693
-581870407
-1688561256
-1389248587
-114895973
-1472882671
-1171394219
-1786434052
-201152023
-997643489
-450937683
-2123407542
-738753756
-1319781395
-513431689
-2124563762
-1799960374
-939082529
-194926543
-1169275973
-395494013
-2421123
-1773732787
-1343639085
-245294802
-1886784756
-356570309
-522878543
-166376608
-1556177317
-686530737
-1392857024
-270662013
-347352088
-52792629
-374674958
-1182120883
-222306476
-1825583195
-1795560365
-1364672658
-2063818902
-997684222
-1521511234
-912335269
-109966235
-256223065
-1594347568
-2002764000
-1305830675
-517969012
-857565150
-1007886514
-1206470179
-1338462297
-393570811
-1625076927
-1353788467
-1117781174
-39882994
-2065098993
-579972376
-1178714164
-753527819
-711918131
-1978524680
-669649709
-1421320607
-11683362
-7764045
-1365035481
-5117558
-438847413
-1874702325
-1225646007
-1689848510
-1253292191
-388346488
-1301009781
-1089268749
-1578718007
-1197681450
-710486665
-1439688355
-1575928949
-2021814962
-1040022243
-1982153626
-799546675
-415174736
-1970233086
-1746479673
-1684134561
-755979310
-1364858651
-114254003
-1133597428
-1023349918
-1082194576
-449466056
-1011338544
-1800360402
-1649465664
-2007043293
-33891044
-619287363
-1438222505
-371355366
-234186416
-1195899115
-526926425
-599850358
-54877421
-1870700404
-1151403868
-1104650203
-2118596570
-1236293407
-326023014
-1173306866
-1966190103
-957661851
-159324582
-666205983
-207213711
-2734833
-849673017
-26540836
-1676990622
-870786882
-907347592
-1953686297
-257003303
-1774220340
-831062341
-1295678708
-1061036712
-1887453913
-1567991809
-1888643831
-675869684
-1242391903
-971830429
-22520485
-179821623
-1479676694
-1908480068
-123415305
-1584118173
-465980783
-1009023161
-1203285605
-1978596814
-1431137788
-904675199
-1801974319
-555706806
-1705453399
-1735040785
-1032118224
-1508200728
-547853963
-1903123805
-1030231204
-470638955
-919900278
-1853667872
-1334165464
-1255074799
-886443267
-1278134847
-982554565
-1210365621
-916333850
-1283092734
-1529166628
-562790978
-1521831991
-1657284814
-1747468962
-292911546
-1133633945
-635837382
-797476289
-615744675
-245924362
-1181487416
-1799931590
-736382241
-1598961565
-1028575825
-651404156
-1507576599
-1245002646
-1960913208
-1412034289
-2046560385
-1613390580
-1530212221
-1394360162
-866004803
-91746771
-698975224
-77209747
-1263575261
-1832734405
-981488484
-237103743
-1815058263
-924637414
-2043523874
-747692530
-2125184047
-836601855
-1988431624
-700028909
-1783335480
-561163981
-1320828219
-223845020
-177566619
-1395550248
-1298514153
-1900957269
-639264061
-277874979
-715316009
-654629802
-1373983918
-1467087409
-1876168102
-778291303
-636432614
-383817958
-1827177613
-1971148359
-1006416012
-1476040440
-27103798
-1508417937
-142461516
-1473681593
-1080089556
-1920746616
-520883874
-88096711
-425800542
-120432919
-1973568870
-1459217877
-243295036
-917197925
-1147063857
-215034961
-1591962450
-1777217078
-831470423
-1047958953
-827758912
-1296637207
-1558498022
-1224854834
-940325562
-2146944428
-1565574408
-1480132101
-1630022748
-928913138
-1313645092
-1219510751
-1794434133
-1503033945
-235507972
-2020806250
-299052723
-1485396777
-589279605
-2060319373
-1774233069
-835341016
-189869220
-372684234
-976579091
-292911600
-2101596987
-1074144644
-1285161119
-1609077014
-554893475
-725230808
-589984615
-2124365146
-859918359
-1236081904
-1422558445
-893354663
-540309432
-504455402
-748008884
-2029973312
-1389648276
-1317971061
-985883639
-1923030805
-834458893
-325928394
-1933306802
-1935506426
-904936017
-666684249
-1408782827
-1169990323
-2097739231
-707196233
-1620809297
-19183441
-1801983907
-1915626983
-2014090433
-88218279
-564214072
-1908233943
-1171158725
-403143753
-233287714
-1024707294
-952003199
-786645571
-2098315971
-1030424285
-970595629
-2016901729
-622367596
-1344072012
-88992687
-72015086
-2023106332
-524417888
-201015601
-857347300
-781310174
-101025869
-883100831
-734041765
-2059526631
-833846002
-624152406
-785354727
-224597138
-669274202
-1335908787
-69161929
-83077440
-190044835
-150042725
-1764524019
-457996187
-51794162
-2090626289
-1658047872
-876583171
-1885390156
-366660366
-1676210390
-62901343
-1149063622
-2118030423
-386478335
-968793925
-1634244536
-132863365
-7341945
-1310573127
-1787461258
-833666159
-984501346
-874027711
-1800218320
-1349650098
-710786324
-2114707070
-939501819
-730864257
-2141300484
-1218331169
-2107832473
-1022856592
-917131836
-1492030781
-66283915
-1895847492
-1844250539
-634533991
-2009836505
-661146277
-1315630881
-504119470
-1625382790
-1509880683
-2048886654
-1592947258
-15368817
-1034783290
-605399598
-1677664842
-352396248
-1694515928
-178680610
-225950046
-1262198716
-1154461818
-29248603
-819980503
-1544714055
-2125317137
-181044375
-44073245
-1361435265
-60391826
-2050011149
-338973467
-108800652
-1049834413
-890792025
-800720703
-1075608235
-1649179545
-499571503
-2124169195
-356127586
-251406629
-1570114518
-1222383913
-1543438936
-1452826350
-1452811691
-1042911255
-950159897
-931020452
-501961434
-1492799045
-1141757154
-116389323
-1334456873
-928386399
-790074407
-594241671
-172078841
-291315669
-378941132
-2015207602
-2047003811
-572571642
-675312972
-1931961702
-2037073734
-1441669483
-911899479
-1226624167
-2145409317
-575941770
-1580923269
-997842591
-69880991
-199574346
-517890536
-1187850448
-647979815
-439196535
-1569937624
-1581245992
-216382338
-436178348
-185166936
-1785656887
-1681439653
-782407773
-892787150
-257900640
-853166600
-1930799691
-456764115
-2056577283
-1066884620
-1603618802
-1991561555
-1256442124
-1972567664
-556634610
-2128978752
-1155479030
-748686700
-254018381
-1988041208
-658793850
-911482378
-1017044557
-1004194213
-2073730773
-128146560
-1029545701
-2131289555
-350616992
-1128986077
-379770241
-1060240748
-656880425
-2002970769
-344912310
-1774131002
-1185438047
-962555098
-1926605204
-1514478721
-1447731153
-1602729006
-1109481474
-929692125
-1279852688
-1672128497
-1096052750
-1992878730
-18366292
-787486021
-996525232
-550675950
-58427383
-1683351232
-145495714
-1634154985
-1714567884
-1024129765
-1242690388
-848289962
-1740885319
-1817804709
-1154363780
-1637386936
-108823981
-1266251876
-826343927
-1270461292
-1085001732
-529276910
-1340372244
-383303213
-1228689471
-1462767971
-1385820265
-1547195159
-1860557650
-1243957694
-455861250
-962127400
-1082305285
-1044123317
-1004194
-1563333108
-185391480
-2110579705
-1004546535
-1654942887
-1120526739
-191732086
-1847181083
-527487011
-935842671
-1117455392
-1652301555
-24297096
-40289737
-36046571
-2002355858
-282536395
-424595559
-1967589367
-966711666
-1082984281
-1041045444
-2053711829
-612849702
-122999292
-699321253
-700309505
-677642687
-501625016
-486228558
-684769287
-1211976602
-759810748
-1595135009
-845444212
-1718113062
-1765917122
-713650776
-22402272
-1577842804
-615814779
-894538980
-1483783263
-1302195296
-1193837283
-787598283
-331467157
-788628613
-1827818030
-1030931326
-100353466
-160229987
-762212822
-1720656373
-579340204
-304624985
-329729636
-1820468666
-1585835276
-1968544069
-506281026
-2009461938
-1569211594
-869795534
-1602396558
-813678396
-1450946574
-67566208
-492189177
-476949642
-1148169591
-831043709
-1517769210
-1194790159
-791469749
-1401664402
-1137682268
-2102597545
-297015778
-810328613
-1133390781
-1120668898
-1252093951
-1806752225
-1038537406
-1284191117
-447719085
-245219198
-260150035
-852563540
-1329168707
-1853578779
-573321901
-1546603289
-561257731
-1433629755
-1261071214
-2036128221
-1620917428
-303937454
-1146418815
-1798688028
-212616769
-1789597054
-1935084075
-1897990196
-70398043
-355443710
-1082442027
-1768797500
-1685990182
-338858036
-758498596
-945193094
-1835250748
-132106930
-413737700
-32253716
-1615212578
-1459831799
-1052288544
-1929760908
-1439912522
-1149225303
-115085448
-1377688901
-1980296434
-1874448514
-888437490
-69534568
-1209255748
-952438735
-1794170157
-2142722048
-736872587
-872842015
-275508104
-2056820043
-1335788000
-1471809422
-1258723783
-433426646
-1689799693
-80289011
-799473229
-383824887
-989088908
-1480074246
-1588199929
-1569048718
-1317763118
-502935463
-2108676746
-237193582
-1094244595
-1029002663
-548440659
-1887635392
-639658033
-2015688840
-1703666850
-1931980213
-513100828
-724909094
-284816559
-1478742208
-436817795
-1572662784
-1711363771
-764878650
-980545953
-1161634600
-1757769479
-1443944513
-228672234
-2009992308
-446080623
-321303430
-629925448
-2130371885
-81115258
-1615766743
-1232314873
-1258489958
-906475250
-1161342029
-438086860
-790992565
-1571277045
-348883710
-1687878687
-803940813
-924646335
-2080966611
-928580884
-1938298372
-1833798802
-307755886
-1535127983
-1595549562
-923706403
-1375609343
-1570165078
-973441196
-1418829237
-1286670210
-948117425
-1565549653
-1306514745
-129456764
-322489148
-288162482
-1614302511
-1788859963
-727502994
-1970523293
-1616243890
-1528854750
-2102038608
-1983704142
-1855452665
-1658520908
-1738454314
-475524244
-130977856
-1811426817
-831426248
-1535483983
-152904798
-47208209
-1427313086
-2105356110
-1658647853
-554516039
-1353719860
-421091601
-908724597
-591475909
-1237003234
-1285365008
-786622703
-586390134
-1769830226
-741613575
-1067357216
-1534688726
-1395565572
-1771732937
-2021613178
-119242458
-1941233931
-1737852284
-1935359297
-1741667704
-652167774
-1020492736
-2121929011
-40583694
-286691389
-1882774072
-2072118909
-1808810330
-1949130442
-1479109658
-1238649323
-842534892
-324836801
-571398856
-1964522890
-835864018
-1113145606
-1050027952
-133647810
-2062784770
-1760074167
-1229244849
-793084123
-985383257
-1024549493
-846904581
-1327326820
-1781639189
-598755159
-2121463102
-1298687510
-788167032
-421311074
-142502718
-1801825428
-895389128
-378298351
-571199910
-1534991822
-1341401451
-497753626
-704166209
-1723635824
-1988843180
-1608584632
-2003726355
-529446237
-1267973465
-868928291
-1232180155
-1648518858
-1497031788
-924005269
-2077304050
-389092045
-1795228358
-2143431691
-2145343860
-1012723918
-1853083449
-946709552
-79195081
-326558807
-358264687
-1935266411
-205332484
-1942621818
-967582868
-1384235926
-229475133
-97603268
-779467592
-908783878
-2099780262
-1055912869
-1732869488
-1868873877
-707226712
-1536544237
-2080361155
-540973333
-1699903506
-1861868320
-1064719980
-1761319815
-1182234949
-204461909
-1380097555
-1524212705
-1876324445
-1474033820
-966387832
-1833523013
-354493828
-1294863647
-278307411
-1080338658
-1510903861
-198808551
-1818837558
-66995082
-1661341684
-1228831861
-481093723
-838800029
-1906390517
-1522676820
-933352967
-1137574955
-132542136
-2142938069
-1400820069
-1742478735
-1649955821
-1405242490
-468782174
-120356391
-1049271646
-235417293
-275436001
-1077892084
-1312808748
-1125557206
-866626850
-2047393149
-905926577
-1008622111
-2037009096
-1071100037
-1487712450
-1929650052
-815716596
-1629103016
-917092308
-2126236789
-1407541229
-1467802584
-464246922
-592379155
-192543079
-153373121
-1200315693
-1862827832
-430915500
-832558669
-1594160236
-458607465
-432108327
-70785938
-2092021710
-439398972
-173604491
-2044352052
-502315827
-1471564278
-2110595046
-554188385
-1000686957
-1087198618
-1519029469
-471306344
-862903919
-1396031312
-1326743074
-1981204988
-1337396509
-242340002
-1003044227
-490396355
-216283878
-34263995
-617470898
-1143062726
-2038575071
-1501045061
-490456701
-1329470846
-311994549
-1852250581
-1104854099
-933966772
-1364873773
-989845435
-505464926
-628400153
-2056269988
-2022594435
-204836435
-216386164
-1142026984
-394207099
-563672314
-1705475424
-1359424142
-1669662583
-1128744677
-267577888
-350881107
-710233007
-915201368
-659807647
-275634022
-1805333644
-973722929
-1401721960
-185419187
-758599121
-1448175752
-1778653204
-1481545112
-1378691609
-791939469
-2097112442
-1452675676
-454772803
-143814721
-1898770734
-694045301
-2060909493
-28345842
-726056036
-1700255908
-985492848
-1326009092
-357619100
-613802362
-2106778879
-278061613
-585552151
-640765833
-1771410748
-1096183840
-1306556930
-1576179816
-1642940100
-691343258
-579509040
-1296200314
-186361995
-1532455124
-440328960
-1020791346
-1162540873
-605081581
-1450072154
-1392096692
-1879429658
-130730270
-1843886750
-766003404
-225546858
-567641691
-29638567
-1684708712
-744551627
-417095228
-1411655417
-264829156
-1152006579
-1485866788
-1603200033
-1739490108
-1617912975
-1432590954
-774244366
-2098010350
-204257947
-1965011135
-821876613
-2083207746
-1030261706
-507984709
-2088148529
-1805142066
-554417912
-19304580
-1171822574
-1990103831
-1499279857
-922269430
-188069363
-1018472392
-751946227
-45715338
-1626969430
-1946651279
-1173671806
-913832271
-1346894889
-1087861239
-1712340611
-1381059466
-1849847748
-1679638680
-256916552
-839494675
-462186692
-479580316
-1042162882
-1449793857
-1225180678
-1237941789
-280758135
-1192848698
-549704962
-1673214991
-413956232
-1047311839
-1998643924
-726463149
-2036118084
-296916977
-596002605
-1683594979
-1108348914
-1230953735
-251046167
-1334023067
-411675976
-471605213
-1078198125
-1875123704
-1510660234
-1924446025
-1585731035
-899566365
-751475456
-980156909
-1943302979
-1179025898
-1296117173
-525253317
-876645261
-505283872
-294836377
-1243838318
-1832639291
-1190741352
-1514178440
-746122678
-560047538
-156056620
-1092559314
-1340816862
-297477616
-1078862219
-1031345371
-1591163190
-1785836094
-947214637
-1954496873
-892043207
-220101111
-17522128
-837475477
-27920302
-686980840
-973138505
-314309873
-1851051266
-305970535
-538841352
-976576782
-1785578521
-2045734664
-488918942
-1277113135
-1463203821
-1647984039
-1794327863
-1162581944
-725936597
-1887768597
-1040392085
-1013955547
-150083378
-439529235
-875719193
-1798654217
-811340367
-1964171101
-757354572
-126769359
-605724764
-69191714
-1581224030
-1941754155
-1003661317
-1277780269
-1468307496
-5563830
-1979481560
-688491185
-280142752
-1117796185
-734579967
-1275856690
-779402809
-108916229
-1838569487
-1427121018
-1458482599
-32685128
-30055937
-339408997
-600334748
-1481407785
-44168025
-1793694704
-1068115055
-1940250178
-2029600810
-612897456
-1327309625
-1117745908
-535019075
-387366519
-1737341473
-398537802
-555898680
-499707890
-746325342
-1788534186
-1539749097
-2073448586
-741099666
-1866581669
-816873032
-164303928
-1747199567
-97009644
-1530828348
-186977329
-694951073
-142038759
-1791557429
-2085624874
-1487908628
-101663048
-1180517490
-1433910759
-827254110
-262457003
-1072231416
-1958093588
-556783215
-1502002975
-479656071
-1486526464
-1999032248
-2011864351
-1830038450
-1264488400
-924678642
-1740161457
-1083223540
-565921294
-288050979
-1594178663
-1852292054
-746749090
-1107832082
-838127431
-890391144
-930597330
-1510209752
-1057124311
-37553931
-888782325
-822847477
-1295807654
-2017663160
-810641007
-1513392647
-1006708923
-655994351
-91885550
-599716988
-161206452
-192836679
-780596843
-174240972
-876558106
-853419852
-1489686370
-886049251
-594484457
-1046807056
-521638684
-764995059
-535353793
-1226399356
-1279221013
-125371811
-1769856426
-950448442
-1165055572
-198582414
-1093298914
-1186671150
-61419972
-435127708
-1308440048
-1969169386
-2103687550
-2030345021
-1681792257
-997641629
-926942309
-1581482170
-1193619641
-904738917
-272585997
-961917316
-1998673195
-646225987
-1697721391
-989569739
-1181679091
-815847123
-635002970
-381064185
-772401756
-256327676
-437518141
-875753038
-1581153953
-392928545
-1970739930
-2096294850
-315945449
-2001706315
-484057905
-1278496366
-1393376125
-775033810
-1893071196
-809197334
-946058133
-1755754777
-1535807475
-431571277
-1142261813
-595063938
-722607675
-1977310747
-528833896
-1806320637
-768855170
-681497482
-67105792
-1460788271
-1942554360
-1964135155
-413764196
-46345360
-187109684
-1511277226
-2126808172
-785527811
-1852641294
-749557320
-1413976453
-67166691
-1709990053
-895375972
-1909487337
-1256876491
-2026083097
-2022832135
-1610507570
-1874332508
-130723326
-1617356441
-1519031582
-1528173973
-559517449
-104321593
-319237324
-258369670
-1178341528
-1635596940
-1199534042
-974833699
-2100291874
-673176704
-337812416
-595575579
-353687457
-1667763707
-1261592802
-1028931049
-1008923117
-182921662
-61105078
-1593598451
-1035636762
-2118699149
-1375774729
-559380546
-2131096688
-926546474
-928296525
-1626364101
-1246543806
-873862973
-1946112205
-1048101520
-1064799599
-525055689
-689995626
-1851436613
-78258034
-1540765624
-159728968
-1165607453
-2127576324
-732874039
-554101940
-2069357715
-1110927363
-882587122
-1752001042
-147575166
-1715562266
-1866100666
-1844220990
-681650346
-1594005151
-700050896
-895118520
-175637791
-1977850853
-1057251903
-1234462234
-1055759198
-1136700407
-1388447268
-589203381
-1555609486
-1998750019
-716955035
-676904508
-449801160
-1429258222
-1438499729
-1537204228
-635579181
-448462684
-1784212169
-80798928
-1390792403
-1085290952
-2106009351
-711643395
-417375937
-1084545279
-795582216
-1874870561
-1840378971
-1335451760
-1582952635
-1704770715
-1076624525
-704121041
-495636186
-1701668276
-1146773446
-1930664811
-559271317
-1398455660
-1907065603
-1053330811
-273354880
-1613922418
-1340493071
-1752736707
-940843673
-14185292
-1551794153
-687424913
-1077138255
-490173963
-1059459273
-2140783788
-39073453
-1966113966
-1759882160
-1372822242
-1302373067
-170941556
-775464967
-916656877
-1254400655
-989494593
-488934992
-933216296
-1280349398
-1451590562
-1608069994
-285717385
-1689406475
-374815389
-1397906866
-543861338
-684910234
-371296355
-527258104
-1847450518
-1085830620
-1739318375
-419166854
-1954437500
-581853921
-1991652040
-336799213
-693988617
-1753923567
-974401888
-1252923833
-1787918834
-1061770805
-93277171
-25887546
-784998841
-705475546
-1758746924
-1812231938
-418125900
-534706173
-891276689
-424242259
-1831559148
-165684763
-15061205
-1327316727
-1747595269
-630590466
-1697595456
-167495706
-856323886
-1946390161
-654605180
-935015110
-286943118
-400314150
-599362810
-885197233
-992278702
-1755165352
-176757661
-2126678520
-480295535
-435870110
-171370237
-1084732137
-1434591140
-1601249578
-1955460245
-216847356
-61003212
-125939128
-1601155426
-1219029936
-744629883
-2041712935
-157844389
-929842257
-61227428
-1785931413
-1511565678
-1701357017
-492355082
-1585328443
-1925605899
-1929780157
-1025722089
-540119205
-2120948541
-182578190
-1532658233
-548518553
-1013570767
-1169647011
-477882012
-1936551088
-810700763
-458198182
-1432328388
-228751908
-1296414417
-938095664
-1115532564
-1536676740
-931193979
-922850615
-1315265630
-885751926
-2012005048
-515952840
-1727595149
-1591230898
-256278502
-447216293
-112620958
-813582938
-581803386
-1957503120
-591572759
-1291198141
-844866794
-1642875276
-163738160
-1692599683
-1387674712
-368218029
-2122028938
-20108070
-446224364
-1136939496
-1110978594
-922177666
-1019381844
-1680042640
-595264434
-1049298268
-2001150365
-394463079
-1931106562
-48621049
-401828903
-761332829
-928180325
-2086002285
-1866862116
-58018559
-21144439
-1168259134
-14786123
-473142476
-1265271329
-466206737
-1664691591
-1663253168
-2118444141
-1371969374
-693927954
-515984652
-153693073
-293283656
-476417874
-708122127
-107857131
-1261283362
-1871165555
-743770045
-1819025306
-599025220
-500134943
-1848282584
-555088528
-260991444
-468217011
-1142847487
-210945887
-189397685
-858739089
-133573210
-67918807
-2018971196
-1800296854
-474074295
-686119594
-893558697
-1461220635
-1351260176
-149908923
-1311909139
-2084579232
-2089796673
-11668205
-2139301012
-2008319992
-963510822
-27191697
-500353718
-722435637
-1701284910
-637817868
-447387180
-2007776889
-1650398640
-779775778
-1867227345
-726678414
-299438748
-1524491066
-372152672
-879560914
-1561781863
-1919368473
-1473465295
-1211892247
-1917246022
-1514779871
-819204175
-409266092
-427286782
-953294050
-189781105
-801445342
-1067130434
-273271048
-319153160
-206852444
-988174117
-268641840
-2118359341
-75803518
-389065724
-209426819
-135701880
-183914359
-1328904336
-576504137
-826918501
-190777063
-1690829581
-204633111
-1687955474
-1294896620
-248612800
-1018510064
-1473918530
-1801911756
-562609436
-120861738
-55343458
-1580937146
-404609485
-739166857
-544252816
-1587639228
-1655195536
-476172652
-1293720733
-1628332341
-1545664697
-1176330861
-1823366639
-187693028
-1807000349
-551296878
-308851403
-1358335502
-542770465
-1607089835
-2042551559
-1952929602
-536522412
-978193917
-1105854852
-1583637035
-1907517729
-2046248051
-80177314
-1053386715
-875670565
-885153160
-1246424062
-1389691786
-588758870
-401873614
-242406356
-1475126526
-1328208177
-1128232110
-36827389
-1875989881
-440656791
-835659630
-752731070
-1312821290
-1007507253
-302813903
-1218199697
-931588766
-1154896379
-1578283881
-267073410
-270568628
-195419307
-907776990
-512389600
-763400643
-1582353044
-2060902270
-457698036
-749732380
-531755483
-1064586284
-547223656
-198056376
-342220328
-765488410
-1989960041
-677647494
-377871516
-1966570227
-912959522
-1961163836
-1891468158
-201715728
-1755167261
-1086649823
-564475840
-1958444514
-1934652483
-27481806
-1028914524
-479376194
-574645931
-1898236326
-864729166
-110039153
-659820132
-866264052
-145405076
-33253238
-1157809832
-2034335012
-1370088978
-1129765263
-222449131
-760795849
-1125605527
-50969810
-1618414424
-2117836424
-294290381
-406202443
-1135214287
-849709677
-543507286
-1946712023
-623887041
-1457956982
-726457610
-1654793765
-1227623935
-1196138230
-1745217955
-1323413607
-1416709980
-356615648
-192273841
-967349231
-403531483
-239573430
-80692823
-742116884
-469203303
-1820987406
-1801323135
-1332793106
-230214997
-429608417
-445453128
-1183610921
-724699666
-1165519126
-807733578
-2015310937
-253120039
-1739932733
-765746000
-1674728599
-1813229478
-1886338995
-507670688
-1759095367
-1176579344
-88292510
-1983929688
-357389855
-1501319170
-1341231699
-1526207390
-1833595945
-101083549
-319983410
-1935043821
-366565222
-820402923
-1293575815
-1755069710
-2121072573
-2106769188
-580045373
-1792162532
-1218675084
-1951024688
-1039271968
-1266650500
-91498973
-1965139823
-809104522
-334450738
-379383573
-588755448
-524578881
-1818719491
-1338617982
-505942994
-2074350865
-1636203656
-1747318584
-103283541
-1432746693
-530109782
-1459895379
-654994141
-1940915688
-1487736955
-1246198612
-481789155
-507296124
-607186628
-2000143458
-1254745607
-469110704
-999466594
-187591103
-751289333
-1204361166
-1068701583
-1631665911
-1326505480
-61705158
-1994689280
-185195479
-1216702086
-1025135735
-17836161
-497573326
-862977668
-922962458
-1478762216
-1607877614
-2027458674
-892147698
-558882567
-273706342
-777521148
-1354956397
-606600499
-1960762641
-1342788361
-243051515
-166934366
-1718894506
-477577894
-2128782573
-353878960
-35206443
-2056072146
-1801436372
-1833756327
-96895300
-1664727921
-1012769314
-1534482099
-2120741593
-1265748633
-2030584373
-1787732762
-713541602
-336875896
-365097273
-1818716353
-2126266791
-386419090
-1023269812
-211537871
-443311060
-1296550359
-1852096439
-667684487
-292600374
-404350859
-825449615
-1152471568
-2146959142
-1139339762
-1100579562
-632850090
-909544323
-703774776
-194083431
-1307688171
-950546774
-292557215
-1215719004
-1717646702
-903574038
-768536489
-2050990622
-154422340
-1063847705
-1533154347
-1372811542
-859361210
-750719522
-75125238
-1299189847
-2000239715
-663673665
-2120218793
-1322357731
-1043057277
-1403478437
-503751881
-265923679
-922785491
-2084326902
-1710046799
-89317853
-1023163826
-1358132662
-1488016386
-469891144
-624365560
-657459574
-42029351
-500551309
-527562404
-144780557
-1075297046
-1538570610
-1962383334
-1987507169
-1990369489
-972309829
-1736763711
-1911503045
-2137406547
-651753808
-1817903847
-1359619463
-928653356
-578523481
-897835598
-418625765
-524370440
-214081874
-86273579
-1857912243
-1376656996
-141910845
-714013248
-335223284
-91529233
-1228495661
-507834207
-1373942498
-1623375936
-703382312
-1415258268
-755786766
-681934130
-1490973033
-1261675148
-114187020
-503149258
-2066223660
-305780820
-525930461
-605256906
-796690219
-462233883
-759735992
-1879412330
-1999077271
-1809440905
-271356466
-1295562498
-1144810951
-2114989872
-1195039107
-578103760
-2102762931
-1347157928
-493246864
-572252942
-1238284010
-1866908097
-1313960861
-829678107
-171191061
-1246191320
-1980748826
-1267122134
-1878193490
-486223819
-871135672
-760792834
-1091024085
-1780975413
-1965945589
-732617533
-525571689
-966172909
-965014296
-428146933
-2076656799
-391536506
-355587849
-179751339
-862860481
-1205088435
-1299991868
-458574492
-1236879223
-620924762
-129922089
-382612175
-1254122129
-698475474
-1402270251
-1108381220
-1567970512
-1082191385
-1138275776
-37664365
-1771221628
-442802447
-748281757
-1135740010
-2060568624
-940742426
-2099237333
-1706921911
-126940000
-759628930
-88018808
-261104073
-776826272
-850214546
-922107797
-339983232
-1774170025
-2012133397
-471471699
-148192358
-581342187
-6175639
-316004075
-159886361
-1783032009
-1472096889
-1225742702
-313464646
-2145207369
-1893077845
-1554013273
-1805089278
-914432472
-1106733254
-1889195670
-969867881
-1115686146
-2115530148
-1945913617
-118318547
-1849737757
-20780995
-1968275050
-1223119793
-1813046373
-716387604
-1159730163
-750786729
-1103291198
-870254815
-1188959785
-649786220
-1431932961
-1052793081
-413284948
-749771633
-457232961
-1744253298
-180402131
-503246555
-1242597697
-1484192822
-1534438294
-38969503
-56023101
-9965637
-881893497
-2084291636
-1267164817
-1141343960
-633379605
-1870691052
-973611424
-633196464
-366635406
-1207522830
-250041540
-937802801
-1911340005
-1200477961
-383236458
-424253492
-1963131649
-506894735
-1469014622
-640491539
-1270731782
-1249918643
-393364870
-1752306112
-1126325594
-762763303
-545208866
-458138137
-1662888119
-1339019692
-120027563
-1064030000
-793956557
-469174416
-1512067846
-684116333
-331804154
-668858346
-1415249259
-1945388516
-1028293308
-1901362221
-1068287436
-1298651098
-1936524162
-1988304268
-449558245
-296632235
-215659949
-1915708238
-1123262860
-1236387661
-554582579
-203969634
-1723865954
-1510786883
-660616339
-1333961674
-833721471
-1414184809
-1824076413
-1004237584
-746491642
-1568800644
-633186419
-1627118886
-1084020119
-767982109
-120166302
-844903179
-231585217
-713444265
-1187407091
-459769857
-1747027727
-1414702850
-2068947128
-1868307049
-499051226
-710607127
-498704578
-2001135720
-1727139679
-1791537876
-556274959
-634090958
-534293168
-40359304
-425606247
-1938711040
-411836894
-1576748798
-279491137
-1373358497
-1138223519
-13187994
-102934545
-1049429846
-1799416250
-353165407
-1845619317
-1499169950
-348853558
-2138767899
-877999471
-113005878
-1435668349
-1041196716
-317800471
-1333844706
-224593457
-1496546334
-1767777461
-1559556878
-1125483476
-2090616333
-207196523
-1928031793
-127313637
-1760230848
-1128906815
-1410707011
-2040047219
-2094256072
-805767095
-1624520506
-1869577439
-1571598934
-1458364770
-1482906
-1907996435
-1529558190
-836072092
-1663272111
-903348004
-1380219246
-896719342
-798580283
-221356162
-889276856
-2125856184
-562369664
-231163520
-417349991
-1272599102
-832352422
-187495744
-2061137582
-1141554142
-1776869380
-843144777
-518265815
-663000654
-1440279008
-687023468
-935364028
-1641057736
-1391037229
-1685470930
-1790578464
-1118266222
-820722536
-446856824
-1617497767
-981291981
-1976104066
-876588497
-1510040999
-357112526
-1203479138
-924105253
-2054163721
-1552466160
-1713328236
-915810435
-1351001412
-46647000
-741081919
-2033297936
-2054153540
-142204941
-58765125
-681905174
-1115089897
-781208210
-1909580264
-1779127131
-1651740545
-1470808601
-1935730048
-1447524581
-1451996018
-1002197477
-2116285028
-1459231836
-1579764559
-940559395
-769045570
-1084011738
-1435723693
-135998536
-491113508
-2024136322
-1390445259
-2133757808
-1774013639
-1736716514
-182271053
-681359442
-1504005759
-1750917159
-736036795
-992781581
-774989515
-626897550
-1123369868
-1578989654
-1283816066
-469527158
-2070633101
-1004719515
-1099123416
-1913825205
-444353442
-1013681682
-395274229
-1009623560
-404927002
-1212745341
-5763660
-269697807
-164826260
-16547149
-809918479
-1774146295
-894486973
-111947543
-1864980779
-1189161694
-685244606
-552027916
-2081827064
-859633437
-1584928493
-2042770133
-1733895807
-283882465
-1812168053
-1236561412
-59706990
-51650270
-326753841
-1380223522
-1456351585
-196788098
-251821853
-1439043195
-1170295094
-1114119942
-893588594
-288140495
-341054401
-1491869773
-1711808486
-119550477
-1425057093
-330076664
-1850430939
-1409306968
-1720693125
-1726654416
-355885059
-524195840
-1877460970
-724548467
-1727866494
-1857339704
-2076833691
-2014418745
-1172896203
-893409804
-1153496209
-1585103329
-823697509
-1701897117
-1360189962
-1782343809
-1353978869
-1418703926
-1931266022
-860506075
-470128155
-1535419253
-389677765
-981697084
-187862869
-1711879410
-450617421
-242566039
-1049610799
-111085430
-238234941
-768784906
-1099612552
-876663639
-1769465608
-1041636204
-1184445531
-2113337976
-401611298
-668236715
-70232209
-1418309415
-1439719066
-1418041724
-1199920672
-744290854
-2058502055
-1127979446
-1544325560
-2088013887
-2133772715
-1145125266
-394045885
-1045612922
-710614319
-1754259673
-1809829685
-2084400646
-455842674
-1655929820
-917786498
-73120104
-671054950
-860243797
-1299051670
-2125441048
-1592018409
-912505969
-94048903
-1868321862
-1689700398
-945255822
-1519849629
-1456023779
-472395354
-519402374
-951740643
-1189439993
-410431986
-138800059
-333297816
-1306546912
-2007541186
-1408383498
-1033610051
-1428637127
-1170667974
-1641938508
-427022386
-999596116
-135120958
-351224493
-1710918894
-1864675944
-1325013950
-88086757
-1576764183
-801797568
-1767066700
-967023064
-984041673
-1673973060
-247006729
-765933031
-1698731918
-846358321
-175040121
-810465151
-1499541018
-1955596028
-1365908628
-1461249098
-808891681
-1662844240
-403577477
-1058354587
-1038218725
-164720996
-1110682632
-242975749
-349857606
-462269150
-1645811135
-264979410
-958152604
-177486090
-824798275
-1434738629
-810095097
-1768299732
-2146829069
-1137906919
-1953335918
-459442529
-1869124229
-1231211841
-469421199
-2012196802
-65250569
-1073998286
-441049759
-1759243399
-287902783
-179702391
-1030126802
-106441998
-600074642
-686080858
-490031448
-984333609
-1200630572
-450954273
-735550913
-1483058018
-572332770
-2143472084
-908011530
-658411183
-1141402846
-980442871
-1174555706
-2146413421
-91107932
-1784115280
-694486917
-331458789
-1991984949
-1896386486
-214440129
-1796095110
-132529632
-107159114
-2134717123
-203934212
-1665353310
-915380205
-2079529608
-317559351
-1463582650
-2043177630
-2041830179
-1727764519
-375170071
-1094387786
-836473346
-470175924
-1310674974
-1288197318
-1697086388
-1097129023
-1305904761
-2028152647
-171685974
-292580688
-1502625766
-1752906282
-1117762007
-1636052418
-1221892700
-1481654764
-634279741
-1096735209
-631089028
-1476974719
-27572132
-1095472357
-969518693
-516859095
-24001945
-2055895007
-1786132917
-1118235459
-2001169852
-42833597
-766776083
-1632420883
-397380074
-3559700
-317525851
-871252457
-741779552
-829952490
-331976072
-317315687
-1686976181
-1012599250
-614970505
-480612041
-5322282
-509343353
-1317513575
-1718950170
-281622314
-1018080137
-1527554395
-1911065521
-208001258
-1457700191
-688189080
-687570583
-328300359
-818746930
-2050818764
-829933537
-1460709144
-1879514148
-1661899060
-1768303822
-1461170666
-296609783
-417061196
-281330258
-1092991019
-864070751
-1876118957
-1082683082
-1493769036
-1537819193
-381610760
-764370054
-567993796
-1905273309
-1105825186
-554615231
-1380103422
-1450582446
-1249195614
-640004336
-257692995
-1217512979
-924149443
-923852797
-988258657
-1595976899
-126921477
-1826388051
-620956386
-357692315
-319799693
-987659250
-571133530
-494400177
-353134300
-1371794607
-902811972
-1314279402
-853797744
-1849111116
-1043300143
-1939688365
-2048832775
-151219145
-763058508
-357355545
-682715974
-1084485642
-215733901
-373768696
-663011367
-1856036086
-39124977
-1105675704
-1284538463
-942898943
-1048816199
-817429183
-131418721
-1043266020
-1628204999
-2107288099
-174483272
-428324800
-110786051
-570359567
-52844267
-1907882198
-894842340
-148807780
-608810963
-2043971478
-1694479511
-1408474481
-1412205899
-1259864941
-9393657
-1612662437
-378813439
-552262238
-216329594
-1905365839
-601904065
-760495641
-418169208
-1584210790
-1531798286
-658490142
-1311305483
-9465437
-351561590
-1821745291
-1893893671
-1200686120
-1346331255
-1250210515
-1017208682
-1767745207
-295262587
-199554530
-165965158
-2044902198
-847772050
-1804811927
-1230852870
-507355653
-477437908
-507356520
-1640099899
-870853750
-1524190974
-1503284800
-558965488
-1558008282
-1067284974
-1810947018
-945324607
-1586831091
-859259790
-1971669358
-504915045
-1348034058
-1378514484
-1834729305
-1603047987
-1768514837
-178940434
-894038999
-254699605
-1159488809
-484026064
-1444454848
-1358496533
-1076145974
-88113311
-407759368
-606638715
-1862624224
-25437162
-309251987
-504472158
-1282035095
-1588724782
-1106214811
-1121224693
-1735709052
-1281661952
-1851005551
-1043787448
-294440688
-1844618397
-1923966755
-351772436
-209582791
-1210802734
-353347558
-1634031380
-980086951
-1360432659
-1224263836
-1421871935
-1747335675
-81162141
-159234675
-1905749708
-231217886
-1957599919
-235688483
-2005977103
-389987030
-505817663
-1009928936
-1115039094
-1568514889
-580045354
-640661453
-2055177744
-1097780190
-26727316
-586388829
-1806122272
-1537555756
-159236152
-892233563
-883639508
-2072017268
-1643097363
-1021814367
-2047006014
-944009683
-2045767131
-1574169879
-1518705176
-233913112
-344010761
-1562577926
-395409550
-1095019115
-612478848
-906204058
-504830314
-824944618
-1558619609
-1197365072
-618330261
-1639728340
-1225429078
-1327040025
-1262350956
-604073487
-225312052
-651793614
-1104242625
-1415506136
-1434109809
-275395331
-877061768
-1174493228
-962481415
-738266384
-797917132
-1459103342
-298474908
-479072587
-752091076
-1883134161
-1058413357
-91725060
-662633450
-1622289394
-1772241971
-329127857
-1237034760
-1545241002
-2073519295
-624917250
-46451387
-228346050
-756338163
-1503555404
-1332746586
-1965222116
-290262625
-1899289887
-1051680697
-751045883
-318045580
-1063504544
-248306199
-1113877107
-1294786167
-1456378845
-724657890
-1538556439
-1225198944
-805354371
-1745631047
-1412480790
-1872898199
-1206971093
-345021856
-74029289
-985510949
-1493468352
-746446915
-470817968
-150258586
-1344932922
-441079625
-1915025791
-1737221366
-630966956
-1033868000
-1380277712
-1915825197
-1647663734
-72382681
-804347944
-1824184073
-674794645
-1468652841
-1971713718
-1505276977
-1964720343
-1143973094
-1015307449
-42666003
-809772420
-765529434
-1023173959
-1560417368
-800496238
-719423015
-1498640901
-1995972682
-169246420
-716395712
-1264681813
-1886832804
-1945606692
-885237888
-1781161581
-1766661344
-294804608
-2083150394
-1592178664
-589234075
-1100114113
-142038028
-70513943
-871917939
-1481887318
-1661133159
-2059630887
-461963587
-1457570561
-617420145
-1957531124
-1345253203
-1162205522
-326048883
-435768779
-1749832018
-1595864498
-1467368627
-1617584202
-1745134222
-1738919879
-2071168991
-1036509178
-1764010491
-1169471554
-1242794087
-574887900
-585864694
-1049224238
-897467777
-1627121872
-1376156246
-2128588739
-436109849
-1022108744
-1034421211
-290870152
-221187179
-647327122
-927726560
-1962759680
-1245389334
-1033470821
-836634924
-180731319
-1788286111
-951244395
-1175382958
-1218051183
-1959649338
-1566961470
-1378216553
-1906549634
-1464841759
-2006858626
-71141150
-1934700330
-1663431896
-1407403471
-1407805453
-1338408551
-726292126
-1303835870
-73182084
-1077826179
-1826133737
-666849029
-767478922
-1040987221
-611351525
-407794454
-1085855912
-1286919538
-1924881736
-272717841
-179564941
-1400137361
-1119522789
-1798310340
-158033423
-1509292043
-464065400
-1306847461
-467195856
-908472678
-1298021074
-677585383
-1788675296
-1212574066
-899892186
-2103900493
-1401603254
-1251450402
-1573019134
-1090864830
-932309949
-1743083438
-49964796
-93901497
-820969491
-1482983006
-1868043241
-1590596814
-1766701703
-1663155732
-1648835710
-592594374
-347903985
-1568492746
-1638394255
-344749983
-1856259337
-2077139563
-1879982700
-920588514
-1527570484
-396537085
-440029507
-924378509
-188989285
-885498220
-1063804458
-141499580
-1814853506
-1418067104
-895177868
-2050326603
-1996969677
-1153931281
-1866437085
-77010682
-155476261
-620104411
-752025045
-1533754985
-1223724160
-702446056
-1588849752
-583673061
-562516144
-1993905164
-576091670
-365692354
-1173396366
-2002783845
-1128804762
-1572385102
-699223572
-25770275
-838584263
-1915809667
-662252249
-1922089038
-237715910
-1565006728
-99060294
-77005502
-217056502
-2071681439
-131858363
-2078897159
-407535540
-1280137803
-801379276
-1806088176
-116352111
-1155942988
-1322200880
-749256749
-109660445
-1031213955
-2063669440
-1528224704
-1562683489
-1619889275
-266895809
-905663818
-1092823396
-121159479
-553245374
-793374174
-1414741260
-718989906
-445950126
-1628476881
-851547145
-647268513
-761204963
-1836663574
-178682534
-496377664
-377961701
-469296935
-1123337909
-1204725875
-1479205840
-1106304749
-544789566
-1534291964
-1330197590
-1224463915
-421112034
-1518407524
-1057034722
-1313223207
-1879601656
-1859567758
-610240193
-1952836148
-1167558827
-1413286750
-1981828152
-1396222604
-201627001
-1766447608
-1132005545
-755103010
-74825190
-1635695707
-1019666663
-1036765860
-1501931114
-2003304705
-1551644608
-648171944
-563239998
-1909619296
-1304043807
-140682798
-1061283907
-453900149
-332103229
-1548631984
-1051347837
-461128103
-1185794621
-1433712643
-457288875
-1810164138
-403130472
-1651313829
-1002815710
-1180611155
-829562518
-540120713
-277459738
-516233260
-540562063
-2120706502
-1826935244
-1018044967
-1198332200
-1472262843
-1106798522
-2073909333
-1453453329
-318208628
-1368846868
-303052719
-809168482
-4461121
-818742577
-2086913461
-723576973
-1104895147
-816984290
-188122984
-1761864810
-1749956071
-1703963768
-2002348443
-1002395396
-1309235016
-1858583860
-569583210
-1283194737
-1773147531
-69187976
-1772579003
-1340680422
-1234686841
-1208313149
-1488324757
-288042532
-1372830054
-386525336
-1654907886
-383605137
-1101478350
-1940279738
-211322583
-1823317908
-1850460331
-918651032
-383031231
-1167854705
-94773387
-1816369048
-1490668475
-1312955160
-691289074
-1294974098
-232061641
-106535864
-1570403921
-1043835953
-1257015892
-2136920898
-1676556583
-910091511
-1822531675
-575354532
-515639370
-1301422434
-2001302486
-1235063156
-141622717
-92185105
-2083770856
-834459896
-1148260880
-863241438
-1122171172
-1866607533
-1721358417
-1913773303
-297115592
-2016743985
-868258713
-1357967702
-409539964
-737616624
-1180655032
-771988071
-1628376420
-1907362878
-219547048
-1557207454
-632893967
-598824196
-1658391843
-64526431
-156446932
-1288914398
-736749003
-1005533474
-396174620
-713834253
-961149681
-114414702
-573050228
-1931682564
-920407837
-1338896812
-338231342
-1044376862
-34315558
-1060938084
-1250274352
-954730954
-883608371
-381204131
-1698774004
-1510649145
-755797160
-1808324503
-1857220142
-1304832000
-38051994
-1046641748
-576641041
-281651139
-1143669281
-536180964
-1270652589
-1645019370
-1732408170
-845130269
-1389220906
-1718622283
-2071942066
-716987515
-1182789298
-288208835
-2092231177
-1518474134
-1407454624
-39396058
-119973632
-425980730
-1713206717
-900683256
-105285870
-2040988844
-1789554834
-1606832239
-1318312460
-618885704
-920689791
-908788718
-1439408528
-2013179427
-250900501
-484416095
-1256761280
-84237049
-1435817376
-2049793481
-1047055974
-1550239898
-2046776041
-640825204
-684789464
-2127856416
-1627201079
-681384925
-218311170
-1062649945
-1111223810
-344781088
-896708105
-109491904
-1697477571
-234015524
-59799385
-1583882139
-1203743298
-2095486035
-750094842
-637514870
-159379213
-1283800448
-556644168
-116995996
-89426521
-136547674
-215024666
-1668398675
-522004025
-294480665
-25175976
-108019826
-1739702775
-143432659
-630092999
-1914537164
-634357092
-372249923
-1787019578
-1065498353
-88746034
-1284882892
-1416995357
-1374835973
-949632225
-905790740
-2108453003
-1791075079
-275923184
-885150841
-118989394
-1083867945
-1136525898
-540619813
-1676240039
-208675927
-1027031992
-1063675382
-886772564
-606734845
-358206741
-2032460859
-1012310893
-119134863
-719892383
-1857525842
-1645384915
-1191669033
-1261109879
-945470854
-2127613473
-1338217210
-1254176430
-505879427
-1473665791
-506158066
-1020946702
-1026885276
-272391033
-1261140934
-971315704
-1366965965
-1014680367
-890961502
-1570986847
-1240365756
-451542396
-1068596907
-1832012520
-1045267215
-1346109129
-1697656831
-1796472635
-2033497432
-1070968032
-118441361
-556135844
-1482516193
-1205275087
-524692895
-1873592277
-49039947
-1864613711
-190548287
-1605259389
-982855048
-1409324515
-1646558995
-430369229
-1875943049
-1381748684
-813806148
-426445843
-1526802524
-915867567
-296988191
-923041917
-1543079667
-1260708448
-1058619886
-1900051151
-1854362543
-1505672275
-670239512
-236360652
-2127489768
-564703942
-393299541
-1851447595
-82153573
-2004297232
-1356556588
-124372490
-942877772
-1062085747
-1094127278
-1588079667
-593927278
-1481936612
-1338628278
-1170317484
-906389733
-581202337
-1769661533
-433402921
-937282722
-1219113506
-158813019
-1617414402
-1902656404
-494328889
-893907217
-1205291585
-708110080
-1404122560
-2051457328
-934524342
-1412025156
-1463889961
-1239748153
-1146899779
-376878732
-838254189
-60388515
-509292736
-1728047925
-1498815999
-1800618777
-2025802730
-1481942255
-252139572
-1813877890
-729982741
-399037454
-1839461794
-1867177908
-801538589
-104784335
-199443259
-1588937200
-548438290
-209756215
-585853973
-1027779964
-1981110979
-156779479
-1987199849
-1769262936
-1791638873
-873250010
-1063329173
-1754738882
-229751972
-191891437
-1551786521
-395367090
-1247719358
-939040099
-692497161
-973807291
-1473831902
-369304822
-336672545
-484795783
-482263237
-1212582132
-321558901
-62526318
-250746223
-868022923
-1995749285
-2009993411
-648513384
-1515303527
-457337134
-1842728020
-1738924775
-1110112707
-592406698
-2013478945
-2110976427
-1975904225
-555098942
-664741960
-2040352865
-1027811156
-319665923
-57781634
-127866327
-711266225
-492740765
-39172929
-819680255
-1074737914
-599227925
-68810600
-492525665
-741173235
-1527157304
-1213285413
-1749158113
-867776002
-2112370066
-847620112
-1807755138
-1766562170
-739308448
-1489455448
-983504139
-1041487008
-420766610
-1502384587
-460748830
-639129496
-1560966239
-1490720617
-736854651
-1640208642
-407591480
-242746276
-953848095
-1878609801
-597392231
-2136896037
-864110573
-1419848024
-912389755
-713547700
-1717305003
-1497784576
-367133150
-9803949
-1369246503
-784143890
-1282840987
-656264213
-1157439598
-1042824904
-165099027
-1781168977
-24967238
-1857659500
-1122879846
-23217218
-282986293
-368473219
-999298334
-457236269
-1754297758
-124852296
-1202217132
-1730744090
-1669076153
-1834421033
-2141856396
-392212726
-868012771
-941772774
-1244960653
-1401158912
-1438703235
-830386946
-422133261
-401205007
-723992939
-1567031180
-678962251
-2104669348
-2020807359
-2019750156
-884596020
-94656258
-246953707
-615558345
-1903718705
-1371647741
-837070462
-64165683
-517842724
-140754969
-480078
-1437983063
-2018722804
-281198185
-1913539880
-114059586
-1590416034
-560130464
-698021471
-1933245630
-708747331
-466222192
-1994525395
-2106661130
-328146548
-169605223
-675453521
-1210398120
-2088174519
-2088174519
